unitTest1
Tree Name: y
Tree Nickname: y
..........#..........
.........###.........
........#####........
........#####........
.......#######.......
......#########......
.......#######.......
......#########......
.....###########.....
....#############....
......#########......
.....###########.....
....#############....
...###############...
..#################..
.........###.........
.........###.........
.........###.........
.........###.........
.........###.........

Tree Name: tree_2
Tree Nickname: tree_2
.........................................................................#.........................#.............
........................................................................###.......................###............
.......................................................................#####.....................#####...........
.......................................................................#####.....................#####...........
......................................................................#######...................#######..........
.....................................................................#########.................#########.........
......................................................................#######...................#######..........
.................................................#...................#########.................#########.........
................................................###.................###########...............###########........
...............................................#####...............#############.............#############.......
...............................................#####.................#########.................#########.........
..............................................#######...............###########...............###########........
.............................................#########.............#############.............#############.......
.........#..................#.................#######.............###############...........###############......
........###................###...............#########...........#################.........#################.....
.......#####..............#####.............###########.............###########...............###########........
.......#####..............#####............#############...........#############.............#############.......
......#######............#######.............#########............###############...........###############......
.....#########..........#########...........###########..........#################.........#################.....
......#######............#######...........#############........###################.......###################....
.....#########..........#########.........###############......#####################.....#####################...
....###########........###########.......#################.............#####.....................#####...........
...#############......#############.............###....................#####.....................#####...........
........###................###..................###....................#####.....................#####...........
........###................###..................###....................#####.....................#####...........
........###................###..................###....................#####.....................#####...........
........###................###..................###....................#####.....................#####...........

Tree Name: 
Tree Nickname: 

Tree Name: 
Tree Nickname: 

Tree Name: 
Tree Nickname: 

Tree Name: 
Tree Nickname: 

unitTest2
Tree Name: y
Tree Nickname: y
..........#..........
.........###.........
........#####........
........#####........
.......#######.......
......#########......
.......#######.......
......#########......
.....###########.....
....#############....
......#########......
.....###########.....
....#############....
...###############...
..#################..
.........###.........
.........###.........
.........###.........
.........###.........
.........###.........

Tree Name: 
Tree Nickname: 

unitTest3
Tree Name: bigTree
Tree Nickname: bigTree
                              ..........#..........
                              .........###.........
                              ........#####........
                              ........#####........
                              .......#######.......
                              ......#########......
                              .......#######.......
                              ......#########......
                              .....###########.....
                              ....#############....
                              ......#########......
                              .....###########.....
                              ....#############....
                              ...###############...
                              ..#################..
                              .........###.........
                              .........###.........
                              .........###.........
                              .........###.........
                              .........###.........

Tree Name: 
Tree Nickname: bigTree

s=tttt
